{
  "bytecode.cvd": "633d4f0a2054249e23df12db5a9e76bcaac23cadaef5ee8f644986f600d8d81e",
  "daily.cvd": "0b6798b54e490be168b873d39ebda41ff4a027720aed855f879779b88982838f",
  "main.cvd": "9694933f37148ec39c1f2ef7b97211ded9b03b140bb48a5eeb27270120844b24"
}
